{
    "status": 200,
    "msg": "OK",
    "payload": {
        "iloscMiejscPracy": 1251,
        "ofertyPracyPage": {
            "content": [
                {
                    "id": "9279de7fa7c871720627a04b085afa78",
                    "status": "A",
                    "stanowisko": "Cieśla / Zbrojarz K/M",
                    "miejscePracy": "Warszawa, mazowieckie",
                    "miejscowoscId": "0918123",
                    "miejscowoscNazwa": null,
                    "pracodawca": "PORR SPÓŁKA AKCYJNA",
                    "typOferty": "oferta pracy",
                    "rodzajUmowy": "Umowa o pracę na czas określony",
                    "dataWaznOd": "20.01.2025",
                    "dataWaznDo": "20.02.2025",
                    "dataRozpoczecia": "20.01.2025",
                    "wymiarZatrud": "1",
                    "placowkaOpis": "Urząd Pracy Miasta Stołecznego Warszawy",
                    "dataDodaniaCbop": "20.01.2025",
                    "wynagrodzenie": "od 4 700 PLN",
                    "zakresObowiazkow": "\nformatowanie szalunków w konstrukcjach, które zostają pokryte świeżym betonem, montowanie gotowych form ze stali wraz z ich właściwym przygotowaniem. Prace szalunkowe i zbrojeniowe przy budowie nowych obiektów oraz wykonywanie elementów konstrukcyjnych, a także inne roboty towarzyszące ww. pracom budowlanym.",
                    "wymagania": "wykształcenie -  zasadnicze zawodowe\nzawód - Zbrojarz (wymagany staż - lata: 1)\nzawód - Cieśla* (wymagany staż - lata: 1)\njęzyk obcy - polski, w mowie: A1 - początkujący, w piśmie: A1 - początkujący\numiejetności - umiejętność pracy w zespole\nWymagania:\n- Wykształcenie: Zawodowe;\n- Umiejętności: umiejętność pracy w zespole ; dokładność ; sumienność i zaangażowanie,\n- Doświadczenie zawodowe: na podobnym stanowisku min. 1 rok;\n- Komunikatywna znajomość języka polskiego w mowie;\n\nPraca w godzinach: 07:00 - 18:00 (8 do 11h dziennie zgodnie z grafikiem)\n\nKontakt: e-mail: emilia.borkowska@porr.pl oraz kontakt telefoniczny: +48 502 039 129  w godzinach: 8:00  16:00 \n",
                    "stopienDopasowania": null,
                    "mapaGoogleUrl": "https://maps.google.pl/maps?q=Warszawa%2C%20HO%C5%81UBCOWA%2C%20%20123%2C%20Warszawa%2C%20mazowieckie%2C%20Warszawa%2C%20Polska",
                    "mapaOsmUrl": "https://www.openstreetmap.org/search?query=HO%C5%81UBCOWA%2C%20%20123%2C%20Warszawa%2C%20mazowieckie%2C%20Polska",
                    "telefon": "502 039 129",
                    "email": "emilia.borkowska@porr.pl",
                    "liczbaWolnychMiejscDlaNiepeln": 0,
                    "niepelnosprawni": false,
                    "dlaOsobZarej": false,
                    "typPropozycji": "",
                    "dodanePrzez": "PUP",
                    "ikonyOferty": [],
                    "popularnosc": null
                },
                {
                    "id": "a7787d5bdde54db153c1ad2889423a30",
                    "status": "A",
                    "stanowisko": "Kierowca przewóz osób niepełnosprawnych K/M",
                    "miejscePracy": "Warszawa, mazowieckie",
                    "miejscowoscId": "0918123",
                    "miejscowoscNazwa": null,
                    "pracodawca": "Płoński Express Artur Derebecki",
                    "typOferty": "oferta pracy",
                    "rodzajUmowy": "Umowa o pracę na okres próbny",
                    "dataWaznOd": "20.01.2025",
                    "dataWaznDo": "24.01.2025",
                    "dataRozpoczecia": "27.01.2025",
                    "wymiarZatrud": "1",
                    "placowkaOpis": "Urząd Pracy Miasta Stołecznego Warszawy",
                    "dataDodaniaCbop": "20.01.2025",
                    "wynagrodzenie": "od 6 000 do 6 300 PLN Do wynagrodzenia doliczane premie.",
                    "zakresObowiazkow": "- kierowanie pojazdem typu minibus w celu transportu osób niepełnosprawnych, ",
                    "wymagania": "wykształcenie -  brak lub niepełne podstawowe\nzawód - Kierowca samochodu osobowego (wymagany staż - lata: 10)\njęzyk obcy - polski, w mowie: B1 - średnio zaawansowany, w piśmie: A2 - niższy średnio zaawansowany\nuprawnienie - Prawo jazdy kat. B\nWymagania: umiejętności manualne - mocowanie wózków inwalidzkich w pojeździe, prawo jazdy kat. B i praktyczne umiejętności prowadzenia auta typu minibus, minimum 10 lat praktyki jako kierowca, komunikatywna znajomość j. polskiego. \nMiejsce pracy: teren Warszawy.\nGodziny pracy: 6-16. Wymiar czasu pracy 8-10 godzin.\nDo wynagrodzenia doliczane premie.\nRekrutacja: ul. Polinezyjska 2 kl. 2. \nZgłoszenia: 602 682 666, w godz. 8-16.\n\n",
                    "stopienDopasowania": null,
                    "mapaGoogleUrl": "https://maps.google.pl/maps?q=Warszawa%2C%20Warszawa%2C%20mazowieckie%2C%20Warszawa%2C%20Polska",
                    "mapaOsmUrl": "https://www.openstreetmap.org/search?query=Warszawa%2C%20mazowieckie%2C%20Polska",
                    "telefon": "602 682 666",
                    "email": null,
                    "liczbaWolnychMiejscDlaNiepeln": 0,
                    "niepelnosprawni": false,
                    "dlaOsobZarej": false,
                    "typPropozycji": "",
                    "dodanePrzez": "PUP",
                    "ikonyOferty": [],
                    "popularnosc": null
                },
                {
                    "id": "d42ee631a9ad87cc2ee97ec6398bf672",
                    "status": "A",
                    "stanowisko": "Młodszy Opiekun K/M",
                    "miejscePracy": "Warszawa, mazowieckie",
                    "miejscowoscId": "0918123",
                    "miejscowoscNazwa": null,
                    "pracodawca": "WARSZAWSKIE CENTRUM INTEGRACJI \"INTEGRACYJNA WARSZAWA\"",
                    "typOferty": "oferta pracy",
                    "rodzajUmowy": "Umowa o pracę na czas określony",
                    "dataWaznOd": "17.01.2025",
                    "dataWaznDo": "17.02.2025",
                    "dataRozpoczecia": "01.03.2025",
                    "wymiarZatrud": "1",
                    "placowkaOpis": "Urząd Pracy Miasta Stołecznego Warszawy",
                    "dataDodaniaCbop": "20.01.2025",
                    "wynagrodzenie": "od 4 700 PLN + dodatek stażowy, \n+ dodatek motywacyjny, \n+ dodatek za pracę w porze nocnej,",
                    "zakresObowiazkow": "\n1.Realizacja zadań związanych z udzielaniem tymczasowego schronienia osobom tego pozbawionym, w tym: \na)przyjmowanie do placówek osób potrzebujących tymczasowego schronienia, w tym wypełnianie niezbędnej dokumentacji; \nb)należyte i staranne prowadzenie rejestru osób korzystających z tymczasowego schronienia;\nc)zapoznawanie klientów z regulaminem placówki, zgodnie z przyjętymi standardami i zasadami; \nd)kontrola osób przyjmowanych i przebywających w placówkach pod kątem czystości oraz zawartości alkoholu w wydychanym powietrzu;\ne)przydzielanie miejsca noclegowego i wydawanie zmiany pościelowej oraz w razie konieczności odzieży, bielizny, obuwia;\nf)wydawanie środków do mycia, dezynfekcji i dezynsekcji, w tym zwalczających wszawicę i udzielanie instruktażu ich stosowania; \ng)asystowanie przy myciu osób z ograniczoną możliwością samoobsługi przywiezionych interwencyjnie przez służby. W razie konieczności pomoc w myciu; \nh)nadzór nad salami noclegowymi i osobami korzystającymi z tymczasowego schronienia; \ni)bieżąca współpraca i wymiana informacji z pracownikami socjalnymi oraz pozostałymi pracownikami WCI.\n2.Dbanie o czystość i estetykę placówek, w tym: a)wykonywanie zadań ujętych z raporcie z wykonywanych czynności;\nb)przygotowywanie do prania pościeli zdawanej przez klientów oraz w razie konieczności zebranie brudnej pościeli ze zwalnianych łóżek. Pranie pościeli w pralkach i suszenie w suszarkach przemysłowych. Przygotowywanie do prania oraz pranie\nw pralkach i suszenie w suszarkach przemysłowych odzieży m.in. osób korzystających z placówek; \nc)zachowanie należytej czystości i higieny wszystkich pomieszczeń w miejscach tymczasowego schronienia  sprzątanie wszystkich pomieszczeń oraz kontrola nad osobami wykonującymi czynności porządkowe; \nd)zmywanie naczyń ręcznie oraz mechanicznie przy pomocy urządzeń do zmywania naczyń; e)przyjmowanie od firmy zewnętrznej cateringu, kontrola przywożonych posiłków zgodnie z procedurą wydawania posiłków i utrzymania czystości w pomieszczeniu wydawalni posiłków; \nf)wydawanie posiłków osobom korzystającym z tymczasowego schronienia; \ng)konserwacja podłóg przy użyciu maszyn do szorowania lub innych urządzeń i sprzętów; \nh)dezynsekcja i dezynfekcja materacy przy użyciu parownicy; \ni)dbałość o czystość i estetykę budynków i otoczenia miejsc tymczasowego schronienia. \n3.Realizacja działań związanych z sytuacjami losowymi lub wywołanymi przez siłę wyższą oraz konfliktami zbrojnymi; \n4.Organizacja i kontrola pracy osób wykonujących nieodpłatną, kontrolowaną pracę na cele społeczne lub pracę społecznie użyteczną, orzeczoną w zamian za karę grzywny, której egzekucja okazała się bezskuteczna;\n5.Inicjowanie rozwiązań poprawiających jakość i efektywność pracy w zakresie udzielania tymczasowego schronienia osobom tego pozbawionym; \n6.Dbałość o zapewnienie wiarygodnego przepływu informacji o realizacji celów i zadań do koordynatora placówki i kierownika Działu ds. Instytucjonalnego Wsparcia; \n7.Aktywny udział w zebraniach i szkoleniach; \n8.Sporządzanie raportów z powierzonych zadań oraz przekazywanie informacji o nietypowych sytuacjach podczas wykonywanej pracy kierownikowi Działu; \n9. Współpraca z instytucjami i organizacjami pomagającymi osobom w kryzysie bezdomności;\n10.Współpraca ze służbami, m.in. Policją, Strażą Miejską, ochroną zdrowia, Strażą Pożarną, Strażą Graniczną itp.\n11.Wykonywanie innych zadań powierzonych przez koordynatora placówki lub Kierownika Działu.",
                    "wymagania": "wykształcenie -  średnie ogólnokształcące\nzawód - Pozostali pracownicy opieki osobistej w ochronie zdrowia i pokrewni gdzie indziej niesklasyfikowani\njęzyk obcy - polski, w mowie: C2 - biegły, w piśmie: C2 - biegły\numiejetności - Obsługa urządzeń biurowych\nWymagania:\n- wykształcenie: średnie ogólnokształcące; kierunek: mile widziane - asystent medyczny;\n- umiejętności: obsługa urządzeń biurowych i AGD;\n- mile widziane: kurs pierwszej pomocy przedmedycznej, badania sanitarno-epidemiologiczne;\n- biegła znajomość języka polskiego;\n\nPraca w godzinach: 7:00-19:00; 19:00-7:00, (Zgodnie z grafikiem);\n\nKontakt: osobisty oraz Tel. 780703110, e-mail: sbebenek@um.warszawa.pl\n",
                    "stopienDopasowania": null,
                    "mapaGoogleUrl": "https://maps.google.pl/maps?q=Warszawa%2C%20Zofii%20Na%C5%82kowskiej%2C%20%2011%2C%20Warszawa%2C%20mazowieckie%2C%20Warszawa%2C%20Polska",
                    "mapaOsmUrl": "https://www.openstreetmap.org/search?query=Zofii%20Na%C5%82kowskiej%2C%20%2011%2C%20Warszawa%2C%20mazowieckie%2C%20Polska",
                    "telefon": "780703110",
                    "email": "sbebenek@um.warszawa.pl",
                    "liczbaWolnychMiejscDlaNiepeln": 0,
                    "niepelnosprawni": false,
                    "dlaOsobZarej": false,
                    "typPropozycji": "",
                    "dodanePrzez": "PUP",
                    "ikonyOferty": [],
                    "popularnosc": null
                }
            ],
            "pageable": {
                "pageNumber": 0,
                "pageSize": 100,
                "sort": [
                    {
                        "direction": "DESC",
                        "property": "dataDodania",
                        "ignoreCase": false,
                        "nullHandling": "NATIVE",
                        "descending": true,
                        "ascending": false
                    }
                ],
                "offset": 0,
                "paged": true,
                "unpaged": false
            },
            "last": false,
            "totalElements": 364,
            "totalPages": 4,
            "size": 100,
            "number": 0,
            "sort": [
                {
                    "direction": "DESC",
                    "property": "dataDodania",
                    "ignoreCase": false,
                    "nullHandling": "NATIVE",
                    "descending": true,
                    "ascending": false
                }
            ],
            "numberOfElements": 100,
            "first": true,
            "empty": false
        }
    }
}